{
  "project_info": {
    "project_number": "382012061584",
    "project_id": "mov21-ad2021",
    "storage_bucket": "mov21-ad2021.appspot.com"
  },
  "client": [
    {
      "client_info": {
        "mobilesdk_app_id": "1:382012061584:android:dced55f74dd118ee99e515",
        "android_client_info": {
          "package_name": "mx.tec.clase3"
        }
      },
      "oauth_client": [
        {
          "client_id": "382012061584-hvq8n2l328muos02h7hbb9na24igpcmg.apps.googleusercontent.com",
          "client_type": 3
        }
      ],
      "api_key": [
        {
          "current_key": "AIzaSyDNx0sOz9NqdkqZRp7QZHofNg8tj0KLpJQ"
        }
      ],
      "services": {
        "appinvite_service": {
          "other_platform_oauth_client": [
            {
              "client_id": "382012061584-hvq8n2l328muos02h7hbb9na24igpcmg.apps.googleusercontent.com",
              "client_type": 3
            }
          ]
        }
      }
    }
  ],
  "configuration_version": "1"
}